[gd_scene load_steps=5 format=2]

[ext_resource path="res://player/player_shot.gd" type="Script" id=1]

[sub_resource type="SphereShape" id=33]
radius = 0.5

[sub_resource type="SpatialMaterial" id=35]
albedo_color = Color( 1, 0.921569, 0.0666667, 1 )
emission_enabled = true
emission = Color( 1, 0.827451, 0.0392157, 1 )
emission_energy = 1.0
emission_operator = 0
emission_on_uv2 = false
transmission_enabled = true
transmission = Color( 1, 0.937255, 0, 1 )

[sub_resource type="SphereMesh" id=34]
material = SubResource( 35 )
radius = 0.4
height = 0.5

[node name="Area" type="Area"]
transform = Transform( 1, 0, 0, 0, 1, 0, 0, 0, 1, 0, 0, -9 )
script = ExtResource( 1 )

[node name="CollisionShape" type="CollisionShape" parent="."]
shape = SubResource( 33 )

[node name="MeshInstance" type="MeshInstance" parent="."]
mesh = SubResource( 34 )
material/0 = null
